<?xml version="1.0" encoding="utf-8"?>
<!-- Generator: Adobe Illustrator 23.0.1, SVG Export Plug-In . SVG Version: 6.00 Build 0)  -->
<svg version="1.1" id="FRENCH" xmlns="http://www.w3.org/2000/svg" xmlns:xlink="http://www.w3.org/1999/xlink" x="0px" y="0px"
	 viewBox="0 0 703.4 178" style="enable-background:new 0 0 703.4 178;" xml:space="preserve">
<style type="text/css">
	.st0{fill:#FFFFFF;}
</style>
<g>
	<path class="st0" d="M164,32.6c3.9,4.6,10.6,7.3,14.6,11.9c-2.8-13.6-13.4-24.8-25.8-27.4C158.8,21.7,160.2,28,164,32.6z
		 M14.5,67.1C23,48.5,35.8,52.4,41.3,34.7c-3.1,5.5-17,7.7-23.5,21.7c3.3-8.3,1.7-21,7.2-27.9C8.2,40.9,15.4,60.9,14.5,67.1z
		 M30,111.9c1.5,7.3-3,17.7,4.2,27.8c-7.4-8.3-23.2-10.5-29.6-23.1c8,31,28.9,24.6,38.4,31.3C35.2,136.7,41.6,129.2,30,111.9z
		 M27.6,131.3C23,114,31.2,108,24.9,91.4c-0.7,9.4-6.9,13.9-2.7,31C14.8,107.9,3.3,102.5,0,92.6C0.2,119.8,22.1,123.8,27.6,131.3z
		 M61.1,160.3c-6.4-8.9-2-13.9-20.1-30.1c3.8,5.9-0.1,13.3,12.1,24.9c-11.9-7-28.4-4-36.3-13.4C30.4,167.7,54.3,157.1,61.1,160.3z
		 M148.5,155.1c12.2-11.5,8.2-19,12.1-24.9c-18.1,16.2-13.7,21.2-20.1,30.1c6.8-3.2,30.7,7.4,44.3-18.6
		C176.9,151.1,160.5,148.1,148.5,155.1z M167.4,139.6c7.2-10,2.7-20.5,4.2-27.8c-11.6,17.4-5.2,24.8-13,36
		c9.4-6.7,30.4-0.4,38.4-31.3C190.6,129.2,174.9,131.3,167.4,139.6z M138.6,161.6c-7.1-1.9-14.3-2.8-19.8-3
		c-6.8-0.2-12.8,1.1-18,3.1c-5.2-1.9-11.3-3.2-18-3.1c-5.4,0.1-12.7,1.1-19.8,3c-10.9,2.9-20.3,5.1-28.4,1c7.8,7,17,9.4,30.2,8
		c11-1.2,19.9-6.7,30.3-6.6c0.1,0,0.3,0,0.4,0c-10.9,5.5-17.1,13.3-17.1,13.3l5,0.7c0,0,5.3-10.6,17.4-13.4
		c12.1,2.8,17.4,13.4,17.4,13.4l5-0.7c0,0-6.2-7.8-17.1-13.3c0.1,0,0.3,0,0.4,0c10.4-0.1,19.3,5.4,30.3,6.6
		c13.2,1.4,22.4-1.1,30.2-8C158.8,166.7,149.4,164.5,138.6,161.6z M25.7,72.6c-4.5,8.6-11.4,10.6-10.7,28.3
		C11.2,85.2,2.2,79.3,2.4,69.2c-6.2,26.3,10.4,29.4,14.7,40.4C16.4,93.9,26.5,90.7,25.7,72.6z M31.9,52.3c-1.6,2.2-2.7,3.1-6.8,6.5
		C19.4,63.5,14.9,69.7,13,78.6C13.4,69,7.5,55.1,11.4,45c-15.3,21.7,0.9,34.6,1.4,42.5C16.9,72.4,26,72.3,31.9,52.3z M188.6,78.6
		c-1.9-9-6.4-15.1-12.1-19.8c-4.2-3.4-5.3-4.4-6.8-6.5c5.9,20,15.1,20.1,19,35.2c0.6-7.8,16.8-20.8,1.4-42.5
		C194.2,55.1,188.2,69,188.6,78.6z M201.6,92.6c-3.3,9.9-14.8,15.3-22.2,29.8c4.2-17.1-2-21.7-2.7-31c-6.2,16.6,2,22.6-2.7,39.9
		C179.6,123.8,201.4,119.8,201.6,92.6z M176,72.6c-0.8,18.1,9.2,21.2,8.6,37c4.3-11,21-14.1,14.7-40.4c0.1,10.1-8.9,15.9-12.6,31.7
		C187.4,83.2,180.5,81.2,176,72.6z M37.6,32.6c3.9-4.6,5.2-10.9,11.2-15.5c-12.4,2.7-23,13.8-25.8,27.4C27,39.9,33.8,37.2,37.6,32.6
		z M160.4,34.7c5.4,17.8,18.2,13.8,26.8,32.5c-0.9-6.3,6.2-26.3-10.5-38.6c5.6,6.9,3.9,19.5,7.2,27.9
		C177.4,42.4,163.4,40.1,160.4,34.7z M117,44.8c-3.2-1.3-6.6-2.3-10.2-2.8c0,0.8,0,1.5,0,2.3c3.3,0.5,6.4,1.4,9.4,2.6
		C116.5,46.2,116.8,45.5,117,44.8z M114.4,22.8l0.7-0.6l-1.3-0.6l-3.4-0.1l-0.9,0.6l-2-0.2v0.5c1.3,0.1,2.5,0.2,3.5,0.4l1.7-0.2
		L114.4,22.8z M107.8,96.5c0-0.6-0.8-1.2-1.9-1.7h-0.2c0,0.5-0.1,2.8-0.1,3.9C107,98.1,107.8,97.4,107.8,96.5z M68.2,53
		c0.1-0.5,0.2-0.8,0.3-1.3c-0.4,0.1-0.9,0.2-1.4,0.1L68.2,53z M100.9,153.6c38.5,0,69.8-31.3,69.8-69.8c0-36.1-27.5-65.9-62.7-69.4
		c0,0.1-0.1,0.3-0.1,0.4c-0.1,0.7-0.3,1.3-0.4,1.8c15.7,1.5,29.9,8.5,40.6,19l-7.7,7.7l0.3-1.4l-1-0.4l-1.4-0.1l0.3-0.9l-0.9-3.2
		l-1.9-2.1l-6-3.2l-0.5,0.6l-1.1,0.3c2.1,3,3.2,6.6,3.2,10.1c0,0.5,0,0.9,0,1.4l3,3.7l-1.4,0.3l0.9,1.4l-2.6,2.6l-1.1-2
		c-0.5,1.4-1.2,2.7-2,3.9c0.2,0.2,0.4,0.4,0.6,0.5l-8.1,8.1c-0.5-0.5-1-0.9-1.5-1.4c-0.8,0.4-1.6,0.7-2.4,1c0.2,0.2,0.5,0.4,0.7,0.5
		l-0.4,0.4l-0.9,0.5l-0.4,0.9l-0.6-0.6l-1.7,0.6l0.5,0.8l1.2-0.3l0.8,0.1l0.1-0.4l0.6-0.3l0.2-0.4L118,64h0.8
		c0.2,0.1,0.3,0.3,0.5,0.4l-3.2,3.2l-0.2-0.3l-3.4,0.6l-0.7,0.7l-0.7,0.1l2.1-2l-0.7-0.4l-1.9,2.6l0.6-0.1v1l0.7,0.3l0.1,1l-1.2-0.2
		l-1.2,0.2l-2.9-1.5c0,0-0.2,7.9-0.2,11.9c7,2.3,14.3,5.7,14.3,14.6c0,3.9-1.7,7.1-5,9.4l0,0c-0.1,0-0.1,0.1-0.2,0.1l0,0
		c-0.1,0.1-0.1,0.1-0.2,0.2c-2.8,1.9-6.4,2.9-9.6,3.8l-0.1,6.2c5,2.5,11,6.1,10.5,16.4c-0.1,2.5-1.1,3.2-1.9,3.5l0,0
		c-2.9,0.7-5.9,1.2-9,1.4c0,0.8,0,1.6,0,2.3c13.4-0.9,25.6-6.6,34.8-15.4l8.1,8.1c-12.1,11.7-28.6,18.9-46.7,18.9
		c-18,0-34.4-7.1-46.6-18.7l8.1-8.1c9.1,8.6,21.1,14.2,34.3,15.2c0-0.7,0-1.5,0-2.3c-12.6-1-24-6.3-32.6-14.5l2.2-2.2l3,0.3l1.6-1.7
		l4.1,0.1l0.6-1.4l-0.1-0.6c6,4.6,13.2,7.5,21.1,8.4c0-0.9,0-1.7,0-2.3c-8.7-1-16.6-4.7-22.7-10.4l8.1-8.1c2,1.8,4.2,3.2,6.6,4.4
		c0.2-0.8,0.5-1.5,0.8-2.1c-2.1-1-4-2.3-5.8-3.9l8.1-8.1c1.3,1,2.8,1.9,4.3,2.4c0-0.8,0-1.7,0-2.4c-1-0.4-1.9-1-2.7-1.6l2.3-2.3
		c-0.8-0.2-1.6-0.5-2.4-0.8l-1.5,1.5c-0.8-0.9-1.4-1.8-1.9-2.9c-1.4-0.6-2.8-1.3-4-2.1c-5-3.3-7.5-7.9-7.5-13.8
		c0-4.5,1.3-7.9,3.3-10.5l-8.1-8.1c5.8-5.6,13.3-9.4,21.6-10.7c0-0.8,0-1.6,0-2.3c-8.9,1.3-17,5.4-23.2,11.3L70.3,52
		c-0.3,0.5-0.7,1.2-1.1,2.1l0.9,0.9c-7,7.4-11.3,17.3-11.5,28.2H47.1c0.2-14.1,5.8-26.8,14.8-36.3l3.6,3.6c0.2,0,0.3,0,0.5,0
		c0.6,0,1.4-0.2,2.1-0.6l-4.6-4.6c2.4-2.4,5.1-4.5,8-6.4c0.2-0.8,0.4-1.4,0.6-1.7c0.1-0.3,0.9-1.2,1.8-2.4
		c-4.4,2.4-8.4,5.4-11.9,8.8l-8.1-8.1C64.5,25.2,78.5,18.3,94,16.7c-0.1-0.3-0.1-0.5-0.1-0.5c-0.1-0.5-0.2-1.1-0.3-1.7
		c-35.1,3.7-62.5,33.4-62.5,69.4C31.1,122.3,62.4,153.6,100.9,153.6z M116,105.4L116,105.4L116,105.4L116,105.4z M149.7,37.3
		c11.4,12,18.5,28.1,18.7,45.8h-11.5c-0.1-8.8-2.3-17.1-6-24.5l0.1-0.2l0.8,0.4l0.2-0.6l-2.1-3.6l-2.4-3.4l-2.8-2.4
		c-1-1.2-2-2.4-3.1-3.5L149.7,37.3z M135.1,52l2.8,0.1l0.7,0.8l-0.3,1.2l3.8,2.4l0.7-0.1l4.9,5.6l2-0.7c3.1,6.7,4.9,14.1,5,21.9
		h-11.5c0-3-0.4-5.9-1.1-8.7l0.5-0.7l0.7-3.6l-0.5-3.9l-1.4-4.4l-3.2-4.7l0.8,0.4l0.4-0.4l-2.6-1.7l-0.2,0.6l2.6,3.7l1.5,3l1,3
		l0.3,2l0.5,3.4l-1,0.1c0,0-1.1-2.1-1.4-2.9l0.5-0.8l-1-1.4v-1.4l-0.7-0.9L138,64c-0.3-0.6-0.6-1.1-1-1.7l0.6,0.3l0.2-0.2l-0.3-0.7
		l0.7-0.4l-0.3-0.4l-1.1,0.4l0.4-1.7l-0.7-0.4l-0.6,1.4c-1.3-1.9-2.6-3.7-4.2-5.3L135.1,52z M132.8,78.9l2.1-1.1l2.1-0.3l0.5-1
		l1.2-0.7l0.5-1l0.4-1.7c0.2,0.6,0.3,1.2,0.5,1.8l-1.1,3.3v1.1l1.6-2.2c0.3,2,0.5,4,0.6,6h-10l-0.2-0.9l1.2-0.9l0.2-0.6l0.5-0.4
		l1.4-0.1l0.1-0.6L132.8,78.9z M119.1,71l1-0.2v-0.2l-1-0.7l0.3-2.2l1.2-1.2c0.8,0.9,1.5,1.8,2.1,2.8l-0.4,1.3l-1.1-0.8l-0.9,0.2
		l0.4,0.8h0.4l-0.5,1.2l-0.3-0.5L119.1,71z M123.5,109.1l-2.5-0.7l-0.7,0.3l-1.4-1.1l-1.3-0.5c0.7-0.5,1.3-1,1.9-1.5l2,1.4l1.6,0.8
		l0.8,0.8L123.5,109.1z M122.2,64.9l8.1-8.1c1.9,2.1,3.6,4.3,5,6.7l-1,0.3l0.1,1.8l3,1.9c0.7,1.7,1.4,3.4,1.9,5.1l-0.5,0.8l-1.1,0.7
		l-0.3,1.7l-0.7,0.4l-0.6,0.7l-0.6-0.2h-1.1l0.7-0.9l0.5-2.3l0.7-0.5l-2.2-2.1l-1.6,0.6l-0.4,1.5l-1,1.1l-1.1-0.9l-0.4-0.9l0.6-0.4
		l0.3,0.6l0.5-0.2l-0.2-1h-0.7v0.4l-0.5,0.1l-2.5-2.9l-0.9-0.7l0.3-0.4l0.8-0.3l-0.7-0.3c0,0-0.9,0.2-1,0.2l0.5,0.6h-1.3
		C124,67,123.1,65.9,122.2,64.9z M126.3,108l-1.1-1.1l0.8-1.1l1.1-2.2l-0.4-0.6l0.7-1.6l-0.1-1.4l-0.4-1.5l-1-0.4l-0.4,0.8l-0.6-0.2
		c0.9-1.4,1.8-2.7,2.4-4.2l1-0.4l0.6-0.8l0.3,0.3l0.7-0.8l-0.6-0.7l0.5-0.1l0.9,0.4h1.8l1.1-0.6l2.8-0.7l-0.5-0.9l-0.2-1.1l1.5,0.7
		l0.6-0.3l-0.3-1.2l-1.8,0.7l-2-0.4l-1.5-3.2h8.8c-0.4,10.1-4.5,19.2-11.1,26.1l-1.2-1.2l0.5-1.6l-0.9-3.5L126.3,108z M127.9,130.4
		l1.1-2.3l-0.4-1l1.6-1.4v-0.8l-1.4-0.8l1.1-2.2l1.7-2.2l-1.7-1.8h-1.3l-0.8-1.3c0.7-0.6,1.3-1.1,2-1.7l8.1,8.1
		C134.9,125.7,131.5,128.3,127.9,130.4z M138,119.7l0.9-1l-0.8-4.4l-0.6-0.2l0.4-0.7l-1.9-0.6l-0.4,1.6l-0.2,2l-0.4,0.4l-3.5-3.5
		c6.9-7.3,11.3-17,11.7-27.7h11.5c-0.4,13.9-6.1,26.5-15.1,35.8L138,119.7z M141.1,122.8c9.4-9.7,15.4-22.9,15.8-37.4h11.5
		c-0.4,17.7-7.6,33.7-19.1,45.5L141.1,122.8z M72.1,111.7c-0.8-0.9-1.6-1.8-2.4-2.7l0.4-2.9l-1.2-2.8L68.6,99l-1.4-2.6l0.3-1.6
		l-1.6-3.1L64.5,91l0.6-1.7L64.5,88l0.6-1.5h1.6l0.6-0.9H70l0.4,0.8L69.8,89l-0.3,0.5l1,2.2L69.8,92l-0.5-0.6l-0.2,0.2l0.5,1.3
		l0.8,1.5h0.4L71,93l-0.4-0.5v-0.9l-0.1-1.9l0.6-3.4l-0.5-0.9h1.9c0.4,7,3.3,13.4,7.9,18.2L72.1,111.7z M64.6,89.3L63.5,91h-1.9
		l-0.1-0.1c-0.3-1.8-0.5-3.6-0.6-5.5h3.5l-0.8,2.8L64.6,89.3z M68.3,81.4l0.2-2.3l1.4-0.8l2.4,0.4l0.4,0.4c-0.2,1.3-0.3,2.6-0.4,3.9
		h-2.7L68.3,81.4z M80,90l0.6-0.3l1.5,1.1l-0.7,0.5l1.7,1.1L83,91.3l0.9-1.5l0.9,1l1,1.4L84,92.6l0.8,1.6l1.2-0.6L85.9,93l0.9-0.6
		l0.5-2.5c0.7,1.5,1.5,2.8,2.6,4l-8.1,8.1c-3.9-4.1-6.4-9.3-7.1-15.2l1.7,1.8H78L80,90z M71.7,56.5l8.1,8.1
		c-1.7,1.9-3.1,3.9-4.3,6.2h-0.6l-1.1,0.4h-0.4l-1.2,1.1l1.5-0.2l1.4-0.3c-0.1,0.2-0.2,0.3-0.2,0.5L73.7,73H73l-1.8,1.4l-1.7-0.1
		L67,78.8l0.5,0.9l-1.4,1.5l-0.2,2h-5.1C61,72.9,65.1,63.5,71.7,56.5z M61.2,117.7l2.6,1.5l0.5,0.4l-1.9,1.9
		c-0.9-0.9-1.7-1.8-2.5-2.8L61.2,117.7z M58.6,85.4c0,1.1,0.1,2.2,0.3,3.3L57.5,89l-0.3,1.4l-2.9,3.7l0.1,5.1l-3,1h-1.6
		c-1.5-4.7-2.4-9.7-2.6-14.9L58.6,85.4L58.6,85.4z M47.3,100.3l-0.7-0.1L46,99.4l-3.2-0.3l1,1.4l-3-0.6l0.8-0.7l-0.7-0.7l-2.1,0.9
		l-0.8,1.4l0.3,3.3l2.5,5.9l1.2,1.9l0.7,0.3l-1.9-3.6l-0.4-1.8l0.4-0.4l-0.3-1l1.1,0.1l1.7,2.6l0.4,0.2v-1.9l0.7,0.4l0.2,1l1.8,0.5
		l0.8-0.5l0.3,0.2v1.4l0.8,1l1,0.2l2.1,3.6l1.3,0.4l0.4-1.7c2.2,3.7,4.9,7.1,7.9,10.2l-8.1,8.1C41.3,119.4,34,103.3,33.6,85.5h11.5
		C45,90.6,45.9,95.6,47.3,100.3z M52.2,37.1l8.1,8.1c-9.4,9.9-15.3,23.3-15.4,38H33.4C33.6,65.3,40.7,49.1,52.2,37.1z M135.2,33
		l-0.7-1.1l-1.5-0.7l-1.2,0.9l1.5,0.8L135,34L135.2,33z M128.3,65.3v0.9l2-0.6l0.6-1.2l-1.4-1.8l0.7-1.1l1.9,1.3l0.3-0.3l-0.4-0.3
		l-0.4-0.8l0.8-0.4l-0.7-1l-1.7,0.9l-0.6,1l-0.3,1l0.8,1.3l-0.3,0.6L128.3,65.3z M45.4,116.7l0.1-0.5l-1-2.2l-1.2-0.5L45.4,116.7z
		 M92.3,73.6c0,1.9,1.2,3.3,3.3,4.5c0,0,0-0.3,0-0.9l-1.3-1.3l0.7-1.3l0.6-0.2c0-2.2-0.1-4.8-0.1-5.1h-0.1
		C93.3,70.4,92.3,71.8,92.3,73.6z"/>
	<g>
		<path class="st0" d="M105.1,123.3c3.6,1.8,6.9,4.3,8.3,9.1c0.6-7.9-3.8-11.3-8.2-13.6C105.2,118.8,105.1,123.3,105.1,123.3z"/>
		<path class="st0" d="M129,43.2c0-7.2-5.2-15.1-18-17.9c-0.9-0.2-2.4-0.4-3.9-0.4c0,1.1-0.1,3.6-0.1,3.6c0,0.8-0.1,3.6-0.1,4.3
			c1.2,0.1,2,0.2,2.4,0.3c7.4,1.8,10.1,6,10.1,10.2c0,6.8-5.8,9.4-13,11.3c-0.8,0.2-1.6,0.4-2.4,0.6c-2.2,0.5-4.4,1.1-6.6,1.7
			c-0.8,0.2-1.6,0.4-2.3,0.7l0,0c-7.9,2.4-14.7,6.2-14.7,16c0,9.7,7.8,13.3,15.4,15.7c-0.1-2.8-0.1-5.6-0.2-8.4
			c-3.4-1.6-5.7-3.6-5.7-7.1c0-3.4,2.2-5.5,5.4-6.9c0.7-0.3,1.5-0.6,2.3-0.9c1.9-0.6,4-1.2,6.2-1.7c0.8-0.2,1.6-0.4,2.4-0.6l0,0
			C117,60.9,129,57.5,129,43.2z"/>
		<path class="st0" d="M90.6,111.7c0,3.9,2.9,6.1,5.8,7.7c0-0.7-0.1-6.7-0.1-6.8c0.1-1.2,1.2-1.9,2.2-2.4c1.4-0.7,2.8-1.1,4.6-1.8
			c0.9-0.3,1.6-0.6,2.4-0.8l0,0c5.8-1.7,12.5-4,12.5-11c0-7.1-5.8-10-12-12.1c0,2.3-0.1,5.5-0.2,7.8c2.7,1,4.4,2.3,4.4,4.3
			c0,2.5-2.7,4-4.6,4.7c-0.8,0.3-2,0.7-2.3,0.8c-1.5,0.5-3.2,1-4.8,1.6c-0.8,0.3-1.6,0.6-2.4,1C93.4,106.1,90.5,108.1,90.6,111.7z"
			/>
		<path class="st0" d="M94.5,25.9c-3.9,1.1-6.1,2.6-7,2.8c-2.5,0.8-6,1-9.7,4.9c-0.7,0.7-2.2,2.7-3.3,4.3c-1.1,1.6-1.1,4.1-2,5.5
			c-1.2,2-0.9,3.1-0.9,3.1v0.1c0,0.2-0.3,1.3-1.3,2.5c-1.2,1.4-2.8,2.1-4.7,1.8c1.7,0.8,4-0.3,4-0.3s-0.4,1.3-0.9,3.3
			c1.9-4.2,3.6-5.8,4.1-6.2c0.8,0.2,2.5,0.1,5.5-1.7c3.5-2,8.7-5.3,10.2-7.3c1.6-2.2,3.8-3.7,6.2-4.6C94.6,31,94.6,28.3,94.5,25.9z
			 M79.8,39.1L78,39.5l2.1-3.5l2.5,0.1L79.8,39.1z"/>
	</g>
	<g>
		<path class="st0" d="M101.7,111.2c-0.3,0.1-1.2,0.5-1.8,0.7c-0.6,0.2-1.3,0.5-1.3,0.7c0,0.1,0.6,30.4,0.6,31.1
			c0,6.3,3.2,6.3,3.2,0c0-0.4,0.6-32.9,0.6-32.9S102.2,111,101.7,111.2z"/>
		<path class="st0" d="M98.4,101.2c1-0.3,2-0.6,2.9-0.9c0.7-0.2,1.3-0.4,1.9-0.6c0-1.9,0.6-28.3,0.7-33.1c-2.4,0.6-4.4,1.1-6.1,1.8
			C97.8,71.9,98.3,98.3,98.4,101.2z"/>
		<path class="st0" d="M101,0c-8.9,0-5.1,13.3-4.4,17.6c0,0.2,0.7,30,0.9,36.8c1.4-0.4,2.7-0.7,4-1c0.9-0.2,1.8-0.5,2.7-0.7
			c0.1-6.6,0.8-35,0.8-35.2C105.5,12.9,110.2,0,101,0z"/>
	</g>
</g>
<path class="st0" d="M290,47l-0.1,2.4c0,0-0.1,1.7-0.1,2.5c-1.5-2.8-3.6-5.5-7.7-5.5c-6.9,0-10.9,6.6-10.9,18
	c0,16,8.1,17.3,10.5,17.3c4.3,0,6.4-2.6,7.6-5c0,1,0,2.2,0,2.2c0,4.9-0.8,10.5-7.5,10.5c-2.6,0-5.6-1-8.5-2.9l-0.4-0.3l-0.4,8
	l0.2,0.1c3.3,1.4,6.8,2.1,10.2,2.1c12.3,0,13.8-9.9,13.8-18.6V52.7l0.2-5.7h-0.3H290z M283.4,75.2c-2,0-4.3-2.9-4.3-11.1
	c0-7.3,1.5-10.7,4.8-10.7c1,0,2,0.4,2.8,1.1c1.7,1.7,2.6,5.1,2.6,9.5C289.3,71.8,287.5,75.2,283.4,75.2z M325.4,75.5v-15
	c0-8.4-2-14-11.5-14c-4.6,0-7.5,1.5-9.4,2.6l-0.2,0.1l0.4,7.4l0.4-0.4c1.2-1.2,4.3-3.2,7.8-3.2c4.7,0,5.2,4.4,5.2,6.2c0,0,0,0.6,0,1
	c-0.4,0-1.1,0-1.1,0c-7.3,0-15.7,1.4-15.7,11.9c0,6.8,4.6,10.3,9.1,10.3c4.1,0,6.4-2.3,8-4.7c0,1.4,0.1,2.8,0.4,4l0.1,0.2h6.9v-0.3
	C325.6,80.3,325.4,78,325.4,75.5z M318.2,66.7c0,6.5-1.7,9.5-5.5,9.5c-2.6,0-4.2-1.9-4.2-5c0-4.4,2.7-6.2,9.3-6.2c0,0,0.2,0,0.3,0
	C318.2,65.5,318.2,66.7,318.2,66.7z M268,46.5c-4.3,0-6.4,3.7-7.3,5.9c0-1.1-0.1-2.6-0.1-2.6l-0.1-2.7h-0.3h-6.7v0.3
	c0.2,1.4,0.2,3.2,0.2,5.6v28.8h7.6v-19c0-7.6,4.4-8.2,5.8-8.2c0.6,0,1.2,0.1,1.9,0.3l0.4,0.1v-8.3l-0.6-0.1L268,46.5z M474.6,46.5
	c-4,0-13.2,1.7-13.2,17.9c0,15.6,8.3,18,13.2,18c4.9,0,13.2-2.3,13.2-18C487.7,48.2,478.5,46.5,474.6,46.5z M474.6,75.9
	c-4.4,0-5.4-6.3-5.4-11.5s0.9-11.5,5.4-11.5c3.5,0,5.3,3.9,5.3,11.5S478.1,75.9,474.6,75.9z M233.2,34.2c-7.8,0-16.1,6.3-16.1,24.1
	s8.3,24.1,16.1,24.1s16.1-6.3,16.1-24.1S241,34.2,233.2,34.2z M233.2,75.4c-5.2,0-8-6.1-8-17.1s2.9-17.1,8-17.1c5.2,0,8,6.1,8,17.1
	C241.3,69.3,238.4,75.4,233.2,75.4z M448.8,81.8h7.6V47h-7.6V81.8z M448.6,41.1h7.9v-8.7h-7.9V41.1z M387.9,63.1l-3.5-2.6
	c-2.1-1.6-3.2-2.5-3.2-4.2c0-2,1.2-3,3.8-3c2.5,0,4.4,0.7,6.1,1.5l0.4,0.2l0.4-7l-0.2-0.1c-3-1.2-5.7-1.4-7.4-1.4
	c-6.4,0-10.4,5.2-10.4,10c0,5.5,3.3,7.8,6.2,9.8l3,2.1c2.5,1.7,3,2.8,3,4.1c0,2.1-1.4,3.1-4.3,3.1c-2.8,0-5.3-1.3-6.6-1.9l-1-0.5
	v0.4l-0.4,7l0.2,0.1c0.9,0.4,4.1,1.7,8.3,1.7c6.8,0,11.2-4.1,11.2-10.4C393.5,67.9,391.7,66,387.9,63.1z M346.2,46.5
	c-4.5,0-6.6,3.2-7.7,5.2c0-0.9-0.1-2.3-0.1-2.3l-0.1-2.3H338h-6.9v0.3c0.2,1.4,0.2,3.2,0.2,5.6v28.8h7.6V61.6c0-2.9,0.6-7.8,4.7-7.8
	c2.7,0,3.8,2,3.8,7.2v20.8h7.6V59.5C355.1,50.9,352.1,46.5,346.2,46.5z M421.7,75.5v-15c0-8.4-2-14-11.5-14c-4.6,0-7.5,1.5-9.4,2.6
	l-0.2,0.1l0.4,7.4l0.4-0.4c1.2-1.2,4.3-3.2,7.8-3.2c4.7,0,5.2,4.4,5.2,6.2c0,0,0,0.6,0,1c-0.4,0-1.1,0-1.1,0
	c-7.3,0-15.7,1.4-15.7,11.9c0,6.8,4.6,10.3,9.1,10.3c4.1,0,6.4-2.3,8-4.7c0,1.4,0.1,2.8,0.4,4l0.1,0.2h6.9v-0.3
	C422,80.3,421.7,78,421.7,75.5z M414.5,66.7c0,6.5-1.7,9.5-5.5,9.5c-2.6,0-4.2-1.9-4.2-5c0-4.4,2.7-6.2,9.3-6.2c0,0,0.2,0,0.3,0
	C414.5,65.5,414.5,66.7,414.5,66.7z M437.2,37.3l-0.4,0.1l-7.2,2.6c0,0,0,6.4,0,7c-0.5,0-4.7,0-4.7,0v6.6c0,0,4.2,0,4.7,0
	c0,0.6,0,18.4,0,18.4c0,6.9,2.8,10.2,8.5,10.2c1.8,0,3.5-0.4,4.9-1.2l0.1-0.1v-6.5l-0.4,0.3c-0.4,0.3-1.2,0.7-2.5,0.7
	c-1.7,0-2.9-0.8-2.9-4.4c0,0,0-16.9,0-17.5c0.5,0,5.9,0,5.9,0V47c0,0-5.4,0-5.9,0C437.2,46.5,437.2,37.3,437.2,37.3z M360.9,81.8
	h7.6V47h-7.6V81.8z M360.8,41.1h7.9v-8.7h-7.9V41.1z M507.9,46.5c-4.5,0-6.6,3.2-7.7,5.2c0-0.9-0.1-2.3-0.1-2.3L500,47h-0.3h-6.9
	v0.3c0.2,1.4,0.2,3.2,0.2,5.6v28.8h7.6V61.6c0-2.9,0.6-7.8,4.7-7.8c2.7,0,3.8,2,3.8,7.2v20.8h7.6V59.5
	C516.8,50.9,513.8,46.5,507.9,46.5z"/>
<path class="st0" d="M345.9,142V97.7h-7.6c0,0,0,17.9,0,19.8c-1-1.9-3.1-4.7-7.4-4.7c-6.5,0-10.4,6.7-10.4,18
	c0,11.2,4,17.9,10.6,17.9c3.6,0,6.1-1.8,7.7-5.3c0,2.1,0.1,3.7,0.2,4.5v0.3h7.2v-0.3C346,146.7,345.9,144.8,345.9,142z M333,142
	c-3.6,0-4.9-3.1-4.9-11.6c0-7.4,1.6-11,5-11c4.5,0,5.2,7,5.2,11.2C338.3,135.8,337.4,142,333,142z M352.2,148.1h7.6v-34.8h-7.6
	V148.1z M352,107.5h7.9v-8.7H352V107.5z M249.2,112.8c-4,0-6.1,2.4-7.8,5.1c-0.9-2-2.7-5.1-7.4-5.1c-4,0-6.2,3-7.3,5.2
	c0-1-0.1-2.3-0.1-2.3l-0.1-2.4h-0.3h-7.4v0.3c0.1,1.7,0.2,3.6,0.2,5.6v28.9h7.6v-21c0-3.4,1.4-7,4.5-7c2.4,0,3.5,1.9,3.5,6.1v21.9
	h7.6v-21c0-3.4,1.4-7,4.5-7c2.4,0,3.5,1.9,3.5,6.1v21.9h7.6v-21.4C257.9,117.2,255.1,112.8,249.2,112.8z M387.7,141.8v-14.9
	c0-8.4-2-14-11.5-14c-4.6,0-7.5,1.5-9.4,2.6l-0.2,0.1l0.4,7.4l0.4-0.4c1.2-1.2,4.3-3.2,7.8-3.2c4.7,0,5.2,4.4,5.2,6.2c0,0,0,0.6,0,1
	c-0.4,0-1.1,0-1.1,0c-7.3,0-15.7,1.4-15.7,11.9c0,6.8,4.6,10.3,9.1,10.3c4.1,0,6.4-2.3,8-4.7c0,1.4,0.1,2.8,0.4,4l0.1,0.2h6.9V148
	C388,146.7,387.7,144.4,387.7,141.8z M380.6,133c0,6.5-1.7,9.5-5.5,9.5c-2.6,0-4.2-1.9-4.2-5c0-4.4,2.7-6.2,9.3-6.2c0,0,0.2,0,0.3,0
	C380.6,131.8,380.6,133,380.6,133z M274.9,112.8c-4,0-13.2,1.7-13.2,17.9c0,15.6,8.3,17.9,13.2,17.9c4.9,0,13.1-2.3,13.1-17.9
	C288.1,114.6,278.9,112.8,274.9,112.8z M274.9,142.2c-4.4,0-5.4-6.3-5.4-11.5s0.9-11.5,5.4-11.5c3.5,0,5.3,3.9,5.3,11.5
	C280.2,138.4,278.4,142.2,274.9,142.2z M703.4,131.4c0-15.3-6.5-18.5-12-18.5c-7.3,0-12.4,7.6-12.4,18.4c0,8.4,3.6,17.4,13.8,17.4
	c4.4,0,7.5-1.6,8.9-2.2l0.2-0.1l-0.4-7.3l-0.4,0.4c-1.6,1.3-3.5,2.6-7.5,2.6c-4.8,0-7.1-2.8-7.2-8.8c0.6,0,17,0,17,0L703.4,131.4
	L703.4,131.4z M686.4,127.5c0.1-4,1.4-8.5,4.9-8.5c3.7,0,4.6,4.6,4.6,8.5H686.4z M307.5,112.8c-4.5,0-6.6,3.2-7.7,5.2
	c0-0.9-0.1-2.3-0.1-2.3l-0.1-2.3h-0.3h-6.9v0.3c0.2,1.4,0.2,3.2,0.2,5.6v28.8h7.6v-20.2c0-2.9,0.6-7.8,4.7-7.8c2.7,0,3.8,2,3.8,7.2
	v20.8h7.6v-22.3C316.5,117.2,313.5,112.8,307.5,112.8z M669.7,103.7l-0.4,0.1l-7.2,2.6c0,0,0,6.4,0,7c-0.5,0-4.7,0-4.7,0v6.6
	c0,0,4.2,0,4.7,0c0,0.5,0,18.4,0,18.4c0,6.9,2.8,10.2,8.5,10.2c1.8,0,3.5-0.4,4.9-1.2l0.1-0.1v-6.5l-0.4,0.3
	c-0.4,0.3-1.2,0.7-2.5,0.7c-1.7,0-2.9-0.8-2.9-4.4c0,0,0-16.9,0-17.4c0.5,0,5.9,0,5.9,0v-6.6c0,0-5.3,0-5.9,0
	C669.7,112.8,669.7,103.7,669.7,103.7z M490.2,112.8c-7.3,0-12.4,7.6-12.4,18.4c0,8.4,3.6,17.4,13.8,17.4c4.4,0,7.5-1.6,8.9-2.2
	l0.2-0.1l-0.4-7.3l-0.4,0.4c-1.6,1.3-3.5,2.6-7.5,2.6c-4.8,0-7.1-2.8-7.2-8.8c0.6,0,17,0,17,0v-1.9
	C502.2,116,495.6,112.8,490.2,112.8z M485.2,127.5c0.1-4,1.4-8.5,5-8.5c3,0,4.6,2.9,4.6,8.5H485.2z M521.9,148.1h7.6V97.7h-7.6
	V148.1z M556.3,141.8v-14.9c0-8.2-0.7-14-10.3-14c-4.6,0-7.5,1.5-9.4,2.6l-0.2,0.1l0.4,7.4l0.4-0.4c1.2-1.2,4.3-3.2,7.8-3.2
	c4.7,0,5.2,4.4,5.2,6.2c0,0,0,0.6,0,1c-0.4,0-1.1,0-1.1,0c-7.3,0-15.7,1.4-15.7,11.9c0,6.8,4.6,10.3,9.1,10.3c4.1,0,6.4-2.3,8-4.7
	c0,1.4,0.1,2.8,0.4,4l0.1,0.2h5.7V148C556.5,146.4,556.3,144.2,556.3,141.8z M550.3,133c0,6.5-1.7,9.5-5.5,9.5c-2.6,0-4.2-1.9-4.2-5
	c0-4.4,2.7-6.2,9.3-6.2c0,0,0.2,0,0.3,0C550.3,131.8,550.3,133,550.3,133z M394,148.1h7.6V97.7H394V148.1z M625.3,141.8v-14.9
	c0-8.4-2-14-11.5-14c-4.6,0-7.5,1.5-9.4,2.6l-0.2,0.1l0.4,7.4l0.4-0.4c1.2-1.2,4.3-3.2,7.8-3.2c4.7,0,5.2,4.4,5.2,6.2c0,0,0,0.6,0,1
	c-0.4,0-1.1,0-1.1,0c-7.3,0-15.7,1.4-15.7,11.9c0,6.8,4.6,10.3,9.1,10.3c4.1,0,6.4-2.3,8-4.7c0,1.4,0.1,2.8,0.4,4l0.1,0.2h6.9V148
	C625.5,146.7,625.3,144.4,625.3,141.8z M618.1,133c0,6.5-1.7,9.5-5.5,9.5c-2.6,0-4.2-1.9-4.2-5c0-4.4,2.7-6.2,9.3-6.2
	c0,0,0.2,0,0.3,0C618.1,131.8,618.1,133,618.1,133z M590.4,121.8l-4.3-2.8c-2.2-1.4-4.1-2.7-4.1-6c0-3.2,2-5.2,5.2-5.2
	c3,0,5.2,1,6.9,1.8l0.8,0.4l0.4-7.7l-0.6-0.2c-1.4-0.5-4.2-1.5-8-1.5c-6.4,0-12.8,4-12.8,12.9c0,5.6,2.1,9.5,6.6,12.4l3.7,2.4
	c3.4,2.2,5.1,3.6,5.1,6.8c0,4.7-3,6.4-5.8,6.4c-4.2,0-7.4-2.1-8.3-2.8l-0.4-0.3l-0.4,8.3l0.1,0.1c2,1.4,5.1,2.1,9.2,2.1
	c8.5,0,13.6-5.3,13.6-14.2C597.4,127.7,594.9,124.8,590.4,121.8z M474.1,142V97.7h-7.6c0,0,0,17.8,0,19.7c-1-1.9-3.1-4.7-7.4-4.7
	c-6.5,0-10.4,6.7-10.4,18c0,11.2,4,17.9,10.6,17.9c3.6,0,6.1-1.8,7.7-5.3c0,2.1,0.1,3.7,0.2,4.5v0.3h7.2v-0.3
	C474.1,146.7,474.1,144.8,474.1,142z M461.1,142c-3.6,0-4.9-3.1-4.9-11.6c0-7.4,1.6-11,5-11c4.5,0,5.2,7,5.2,11.2
	C466.4,135.8,465.5,142,461.1,142z M419.4,112.8c-7.3,0-12.4,7.6-12.4,18.4c0,8.4,3.6,17.4,13.8,17.4c4.4,0,7.5-1.6,8.9-2.2l0.2-0.1
	l-0.4-7.3l-0.4,0.4c-1.6,1.3-3.5,2.6-7.5,2.6c-4.8,0-7.1-2.8-7.2-8.8c0.6,0,17,0,17,0v-1.9C431.4,116,424.9,112.8,419.4,112.8z
	 M414.4,127.5c0.1-4,1.4-8.5,4.9-8.5c3.7,0,4.6,4.6,4.6,8.5H414.4z M645.4,112.8c-4.5,0-6.6,3.2-7.7,5.2c0-0.9-0.1-2.3-0.1-2.3
	l-0.1-2.3h-0.3h-6.9v0.3c0.2,1.4,0.2,3.2,0.2,5.6v28.8h7.6v-20.2c0-2.9,0.6-7.8,4.7-7.8c2.7,0,3.8,2,3.8,7.2v20.8h7.6v-22.3
	C654.3,117.2,651.3,112.8,645.4,112.8z M698.5,100h-7.3l-3.9,10.1h5L698.5,100z"/>
</svg>
